Name,Version,Release,Description,Type,ContainsCrypto,Supplier-Name,RootSupplierName,CategoryName,LicenseFolderName,SourceFilename,IsContainingComponent,ComponentLinkName,ComponentLinkURL
AngularJS frontend framework,1.4.0,,AngularJS Frontend Framework,OpenSource,No,GitHub,,Programming,,,,,
angular 'ui.router',0.2.13,,Manages AngularJS front-end state,OpenSource,No,GitHub,,Programming,,,,,
angular ui tree,2.15.0,,Manages AngularJS drag and drop in nested lists,OpenSource,No,GitHub,,Programming,,,,,
mentio, 0.9.24,,Hotkey shortcuts for AngularJS,OpenSource,No,GitHub,,Programming,,,,,
Ng-dialog,2.15.0,,AngularJS modal windows,OpenSource,No,GitHub,,Programming,,,,,
ipCookie,4.1.0,,AngularJS lightweight cookie access,OpenSource,No,GitHub,,Programming,,,,,
Toaster,2.0.0,,AngularJS popup success and warning notifications,OpenSource,No,GitHub,,Programming,,,,,
Angular UI-select,0.12.0,,AngularJS select dropdown component ,OpenSource,No,GitHub,,Programming,,,,,
RecursionHelper, 1.0.5,,AngularJS correct initialisation of nested directives,OpenSource,No,GitHub,,Programming,,,,,
ng.deviceDector,2.0.2,,AngularJS frontend user-agent detection ,OpenSource,No,GitHub,,Programming,,,,,
Scroll Glue,2.0.7,,AngularJS fixes scroll position within a div when dynamic content is added ,OpenSource,No,GitHub,,Programming,,,,,
Angular Material ,1.0.0-rc2,,AngularJS library of UIComponents that follow the material design pattern,OpenSource,No,GitHub,,Programming,,,,,
Modernizr,2.8.3,,Browser Feature detection library ,OpenSource,No,GitHub,,Programming,,,,,
Angular ui bootstrap,2.1,,"AngularJS UI components such as date pickers and typeahead, popover and tooltips",OpenSource,No,GitHub,,Programming,,,,,
RaphaelJS,2.1.4,,"Javascript drawing library, outputs SVG",OpenSource,No,RaphaelJS,,Programming,,,,,
duration.js,3.3.5,,Parses durations based on text strings,OpenSource,No,GitHub,,Programming,,,,,
moment.js,2.10.2,,Javascript Date library,OpenSource,No,MomentJS,,Programming,,,,,
underscore.js,1.8.3,,Library of javascript functions ,OpenSource,No,GitHub,,Programming,,,,,
TextAngular,1.3.10,,Angular WYSYWIG directive for html content in descriptions,OpenSource,No,GitHub,,Programming,,,,,
ng-token-auth,0.0.29,,AngularJS token-based authentication ,OpenSource,No,GitHub,,Programming,,,,,
Angular Ripple,0.0.5,,AngularJS ripple effect on click ,OpenSource,No,GitHub,,Programming,,,,,
Filesaver.js,1.3.2,,Javascrtip local saving of downloaded files ,OpenSource,No,GitHub,,Programming,,,,,
Ng-file-upload,12.0.4,,AngularJS file  upload,OpenSource,No,GitHub,,Programming,,,,,
Validation Match,1.9.0,,AngularJS validation for comparing if two form fields match,OpenSource,No,GitHub,,Programming,,,,,
faye.js,1.1.2,,Javascript support for Bayeux Websockets,OpenSource,No,GitHub,,Programming,,,,,
normalize.css,,,,OpenSource,No,GitHub,,GRAPHICS,,,,,
Fontawesome,,,,OpenSource,No,GitHub,,FONTS,,,,,
material design icons,,,,OpenSource,No,GitHub,,GRAPHICS,,,,,
entypo+ icons,,,,OpenSource,No,GitHub,,GRAPHICS,,,,,
iconmoon-free icons,,,,OpenSource,No,GitHub,,GRAPHICS,,,,,
google webfonts,,,,OpenSource,No,Google,,,,,,,
jquery 1.11.2,,,,OpenSource,,,,,,,,,
MatchMedia Polyfill,,,,OpenSource,,,,,,,,,
nwmatcher,,,,OpenSource,,,,,,,,,
selectivizr,,,,OpenSource,,,,,,,,,
es5-shim,,,,OpenSource,,,,,,,,,
respond.js,,,,OpenSource,,,,,,,,,
Opacity Polyfill,,,,OpenSource,,,,,,,,,
,,,,,,,,,,,,,
,,,,,,,,,,,,,
,,,,,,,,,,,,,
actionmailer,4.2.5.2,,Rails Mailer,OpenSource,No,RubyGems,,Programming,,,,,
actionpack,4.2.5.2,,,OpenSource,No,RubyGems,,Programming,,,,,
actionview,4.2.5.2,,Rails View builder,OpenSource,No,RubyGems,,Programming,,,,,
activejob,4.2.5.2,,Rails Que,OpenSource,No,RubyGems,,Programming,,,,,
mail,2.5.4,,Rails mail,OpenSource,No,RubyGems,,Programming,,,,,
rails-dom-testing,1.0.5,,Rails Dom Testing,OpenSource,No,RubyGems,,Programming,,,,,
actionpack,4.2.5.2,,,OpenSource,No,RubyGems,,Programming,,,,,
actionview,4.2.5.2,,Rails View builder,OpenSource,No,RubyGems,,Programming,,,,,
activesupport,4.2.5.2,,,OpenSource,No,RubyGems,,Programming,,,,,
rack,1.6,,,OpenSource,No,RubyGems,,Programming,,,,,
rack-test,0.6.2,,,OpenSource,No,RubyGems,,Programming,,,,,
rails-dom-testing,1.0.5,,,OpenSource,No,RubyGems,,Programming,,,,,
rails-html-sanitizer,1.0.2,,,OpenSource,No,RubyGems,,Programming,,,,,
actionview,4.2.5.2,,,OpenSource,No,RubyGems,,Programming,,,,,
activesupport,4.2.5.2,,,OpenSource,No,RubyGems,,Programming,,,,,
builder,3.1,,,OpenSource,No,RubyGems,,Programming,,,,,
erubis,2.7.0,,,OpenSource,No,RubyGems,,Programming,,,,,
rails-dom-testing,1.0.5,,,OpenSource,No,RubyGems,,Programming,,,,,
rails-html-sanitizer,1.0.2,,,OpenSource,No,RubyGems,,Programming,,,,,
active_model_serializers,0.8.3,,,OpenSource,No,RubyGems,,Programming,,,,,
activemodel,3.0.0,,,OpenSource,No,RubyGems,,Programming,,,,,
activejob,4.2.5.2,,,OpenSource,No,RubyGems,,Programming,,,,,
activesupport,4.2.5.2,,,OpenSource,No,RubyGems,,Programming,,,,,
globalid,0.3.0,,,OpenSource,No,RubyGems,,Programming,,,,,
activemodel,4.2.5.2,,,OpenSource,No,RubyGems,,Programming,,,,,
activesupport,4.2.5.2,,,OpenSource,No,RubyGems,,Programming,,,,,
builder,3.1,,,OpenSource,No,RubyGems,,Programming,,,,,
activerecord,4.2.5.2,,,OpenSource,No,RubyGems,,Programming,,,,,
activelmodel,4.2.5.2,,,OpenSource,No,RubyGems,,Programming,,,,,
activesupport,4.2.5.2,,,OpenSource,No,RubyGems,,Programming,,,,,
arel,6,,,OpenSource,No,RubyGems,,Programming,,,,,
activesupport,4.2.5.2,,,OpenSource,No,RubyGems,,Programming,,,,,
i18n,0.7,,,OpenSource,No,RubyGems,,Programming,,,,,
json,1.7.7,,,OpenSource,No,RubyGems,,Programming,,,,,
minitest,5.1,,,OpenSource,No,RubyGems,,Programming,,,,,
thread_safe,0.3.4,,,OpenSource,No,RubyGems,,Programming,,,,,
tzinfo,1.1,,,OpenSource,No,RubyGems,,Programming,,,,,
addressable,2.4.0,,,OpenSource,No,RubyGems,,Programming,,,,,
airbrushssh,1.0.1,,,OpenSource,No,RubyGems,,Programming,,,,,
sshkit,1.6.1,,,OpenSource,No,RubyGems,,Programming,,,,,
algorithms,0.6.1,,,OpenSource,No,RubyGems,,Programming,,,,,
arel,6.0.3,,,OpenSource,No,RubyGems,,Programming,,,,,
ast,2.1.0,,,OpenSource,No,RubyGems,,Programming,,,,,
astrolabe,1.3.1,,,OpenSource,No,RubyGems,,Programming,,,,,
parser,2.2,,,OpenSource,No,RubyGems,,Programming,,,,,
awesome_nested_set,3.0.2,,,OpenSource,No,RubyGems,,Programming,,,,,
activerecord,4.0.0,,,OpenSource,No,RubyGems,,Programming,,,,,
bcrypt,3.1.11,,,OpenSource,No,RubyGems,,Programming,,,,,
brakeman,3.1.1,,,OpenSource,No,RubyGems,,Programming,,,,,
erubis,2.6,,,OpenSource,No,RubyGems,,Programming,,,,,
fastercsv,1.5,,,OpenSource,No,RubyGems,,Programming,,,,,
haml,3,,,OpenSource,No,RubyGems,,Programming,,,,,
highline,1.6,,,OpenSource,No,RubyGems,,Programming,,,,,
multi_json,1.2,,,OpenSource,No,RubyGems,,Programming,,,,,
ruby2ruby,2.1.1,,,OpenSource,No,RubyGems,,Programming,,,,,
ruby_parser,3.7.0,,,OpenSource,No,RubyGems,,Programming,,,,,
sass,3,,,OpenSource,No,RubyGems,,Programming,,,,,
slim,1.3.6,,,OpenSource,No,RubyGems,,Programming,,,,,
terminal-table,1.4,,,OpenSource,No,RubyGems,,Programming,,,,,
browser,2.1.0,,,OpenSource,No,RubyGems,,Programming,,,,,
builder ,3.2.2,,,OpenSource,No,RubyGems,,Programming,,,,,
bullet,5.0.0,,,OpenSource,No,RubyGems,,Programming,,,,,
activesupport,3.0.0,,,OpenSource,No,RubyGems,,Programming,,,,,
uniform_notifier,1.9.0,,,OpenSource,No,RubyGems,,Programming,,,,,
bundler-audit,0.4.0,,,OpenSource,No,RubyGems,,Programming,,,,,
bundler,1.2,,,OpenSource,No,RubyGems,,Programming,,,,,
thor,0.18,,,OpenSource,No,RubyGems,,Programming,,,,,
byebug,5.0.0,,,OpenSource,No,RubyGems,,Programming,,,,,
columnize,0.9.0,,,OpenSource,No,RubyGems,,Programming,,,,,
cancancan,1.12.0,,,OpenSource,No,RubyGems,,Programming,,,,,
capistrano,3.4.0,,,OpenSource,No,RubyGems,,Programming,,,,,
rake,10.0.0,,,OpenSource,No,RubyGems,,Programming,,,,,
sshkit,1.3,,,OpenSource,No,RubyGems,,Programming,,,,,
capistrano-bundler,1.1.4,,,OpenSource,No,RubyGems,,Programming,,,,,
capistrano,3.1,,,OpenSource,No,RubyGems,,Programming,,,,,
sshkit,1.2,,,OpenSource,No,RubyGems,,Programming,,,,,
capistrano-rails,1.1.3,,,OpenSource,No,RubyGems,,Programming,,,,,
capistrano,3.1,,,OpenSource,No,RubyGems,,Programming,,,,,
capistrano-bundler,1.1,,,OpenSource,No,RubyGems,,Programming,,,,,
capistrano-resque,0.2.2,,,OpenSource,No,RubyGems,,Programming,,,,,
capistrano-rvm,0.1.2,,,OpenSource,No,RubyGems,,Programming,,,,,
capistrano,3.0.0,,,OpenSource,No,RubyGems,,Programming,,,,,
sshkit,1.2,,,OpenSource,No,RubyGems,,Programming,,,,,
capistrano-slackify,2.6.0,,,OpenSource,No,RubyGems,,Programming,,,,,
capistrano,3.2.0,,,OpenSource,No,RubyGems,,Programming,,,,,
capistrano-thin,1.2.0,,,OpenSource,No,RubyGems,,Programming,,,,,
capistrano,3.0.0,,,OpenSource,No,RubyGems,,Programming,,,,,
thin,1.6.0,,,OpenSource,No,RubyGems,,Programming,,,,,
colorize,0.7.7,,,OpenSource,No,RubyGems,,Programming,,,,,
columnize,0.9.0,,,OpenSource,No,RubyGems,,Programming,,,,,
concurrent-ruby,1.0.1,,,OpenSource,No,RubyGems,,Programming,,,,,
cookiejar,0.3.0,,,OpenSource,No,RubyGems,,Programming,,,,,
daemons,1.2.3,,,OpenSource,No,RubyGems,,Programming,,,,,
dalli,2.7.6,,,OpenSource,No,RubyGems,,Programming,,,,,
database-cleaner,1.4.1,,,OpenSource,No,RubyGems,,Programming,,,,,
db-query-matchers,0.4.0,,,OpenSource,No,RubyGems,,Programming,,,,,
devise,3.5.6,,,OpenSource,No,RubyGems,,Programming,,,,,
bcrypt,3.0.0,,,OpenSource,No,RubyGems,,Programming,,,,,
orm_adaptor,0.1.0,,,OpenSource,No,RubyGems,,Programming,,,,,
railties,3.2.6,,,OpenSource,No,RubyGems,,Programming,,,,,
thread_safe,0.1.0,,,OpenSource,No,RubyGems,,Programming,,,,,
warden,1.2.3,,,OpenSource,No,RubyGems,,Programming,,,,,
devise_invitable,1.5.2,,,OpenSource,No,RubyGems,,Programming,,,,,
actionmailer ,3.2.6,,,OpenSource,No,RubyGems,,Programming,,,,,
devise,3.2.0,,,OpenSource,No,RubyGems,,Programming,,,,,
,,,,OpenSource,No,RubyGems,,Programming,,,,,
devise_token_auth ,0.1.37,,,OpenSource,No,RubyGems,,Programming,,,,,
,,,,OpenSource,No,RubyGems,,Programming,,,,,
,,,,OpenSource,No,RubyGems,,Programming,,,,,
diff-lcs ,1.2.5,,,OpenSource,No,RubyGems,,Programming,,,,,
docile ,1.1.5,,,OpenSource,No,RubyGems,,Programming,,,,,
dotenv ,2.0.2,,,OpenSource,No,RubyGems,,Programming,,,,,
dotenv-rails ,2.0.2,,,OpenSource,No,RubyGems,,Programming,,,,,
dotenv ,2.0.2,,,OpenSource,No,RubyGems,,Programming,,,,,
railties ,4.0.0,,,OpenSource,No,RubyGems,,Programming,,,,,
dotiw ,3.1.1,,,OpenSource,No,RubyGems,,Programming,,,,,
actionpack ,3,,,OpenSource,No,RubyGems,,Programming,,,,,
,,,,OpenSource,No,RubyGems,,Programming,,,,,
em-http-request ,1.1.3,,,OpenSource,No,RubyGems,,Programming,,,,,
addressable ,2.3.4,,,OpenSource,No,RubyGems,,Programming,,,,,
cookiejar ,0.3.0,,,OpenSource,No,RubyGems,,Programming,,,,,
em-socksify ,0.3.0,,,OpenSource,No,RubyGems,,Programming,,,,,
eventmachine,1.0.3,,,OpenSource,No,RubyGems,,Programming,,,,,
http_parser.rb ,0.6.0,,,OpenSource,No,RubyGems,,Programming,,,,,
em-socksify ,0.3.1,,,OpenSource,No,RubyGems,,Programming,,,,,
eventmachine ,1.0.0,,,OpenSource,No,RubyGems,,Programming,,,,,
erubis ,2.7.0,,,OpenSource,No,RubyGems,,Programming,,,,,
eventmachine ,1.0.8,,,OpenSource,No,RubyGems,,Programming,,,,,
exception_notification,4.1.1,,,OpenSource,No,RubyGems,,Programming,,,,,
actionmailer,3.0.4,,,OpenSource,No,RubyGems,,Programming,,,,,
activesupport,3.0.4,,,OpenSource,No,RubyGems,,Programming,,,,,
factory_girl,4.5.0,,,OpenSource,No,RubyGems,,Programming,,,,,
activesupport,3.0.0,,,OpenSource,No,RubyGems,,Programming,,,,,
factory_girl_rails,4.5.0,,,OpenSource,No,RubyGems,,Programming,,,,,
factory_girl,4.5.0,,,OpenSource,No,RubyGems,,Programming,,,,,
railties,3.0.0,,,OpenSource,No,RubyGems,,Programming,,,,,
fastercsv,1.5.5,,,OpenSource,No,RubyGems,,Programming,,,,,
faye,1.1.2,,,OpenSource,No,RubyGems,,Programming,,,,,
cookiejar,0.3.0,,,OpenSource,No,RubyGems,,Programming,,,,,
em-http-request,0.3.0,,,OpenSource,No,RubyGems,,Programming,,,,,
eventmachine,0.12.0,,,OpenSource,No,RubyGems,,Programming,,,,,
faye-websocket,0.9.1,,,OpenSource,No,RubyGems,,Programming,,,,,
multi_json,1.0.0,,,OpenSource,No,RubyGems,,Programming,,,,,
rack,1.0.0,,,OpenSource,No,RubyGems,,Programming,,,,,
websocket-driver,0.5.1,,,OpenSource,No,RubyGems,,Programming,,,,,
faye-rails,2.0.1,,,OpenSource,No,RubyGems,,Programming,,,,,
eventmachine,1.0.0,,,OpenSource,No,RubyGems,,Programming,,,,,
faye,1.1.1,,,OpenSource,No,RubyGems,,Programming,,,,,
faye-websocket,0.10.2,,,OpenSource,No,RubyGems,,Programming,,,,,
eventmachine,0.12.0,,,OpenSource,No,RubyGems,,Programming,,,,,
websocket-driver,0.5.1,,,OpenSource,No,RubyGems,,Programming,,,,,
figaro,1.1.1,,,OpenSource,No,RubyGems,,Programming,,,,,
thor,0.14,,,OpenSource,No,RubyGems,,Programming,,,,,
globalid,0.3.6,,,OpenSource,No,RubyGems,,Programming,,,,,
activesupport,4.1.0,,,OpenSource,No,RubyGems,,Programming,,,,,
haml ,4.0.7,,,OpenSource,No,RubyGems,,Programming,,,,,
,,,,OpenSource,No,RubyGems,,Programming,,,,,
highline ,1.7.8,,,OpenSource,No,RubyGems,,Programming,,,,,
http_parser.rb,0.6.0,,,OpenSource,No,RubyGems,,Programming,,,,,
i18n,0.7.0,,,OpenSource,No,RubyGems,,Programming,,,,,
json,1.8.3,,,OpenSource,No,RubyGems,,Programming,,,,,
jwt,1.5.2,,,OpenSource,No,RubyGems,,Programming,,,,,
loofah,2.0.3,,,OpenSource,No,RubyGems,,Programming,,,,,
nokogiri,1.5.9,,,OpenSource,No,RubyGems,,Programming,,,,,
macaddr,1.7.1,,,OpenSource,No,RubyGems,,Programming,,,,,
systemu,2.6.2,,,OpenSource,No,RubyGems,,Programming,,,,,
mail,2.8.4,,,OpenSource,No,RubyGems,,Programming,,,,,
mime-types,1.16,,,OpenSource,No,RubyGems,,Programming,,,,,
mime-types,3.0.0,,,OpenSource,No,RubyGems,,Programming,,,,,
mime-types-data,3.2015,,,OpenSource,No,RubyGems,,Programming,,,,,
mime-types-data,3.2016.0221,,,OpenSource,No,RubyGems,,Programming,,,,,
mini_portile2 ,2.0.0,,,OpenSource,No,RubyGems,,Programming,,,,,
minitest,5.8.4,,,OpenSource,No,RubyGems,,Programming,,,,,
mono_logger,1.1.0,,,OpenSource,No,RubyGems,,Programming,,,,,
multi_json,1.11.2,,,OpenSource,No,RubyGems,,Programming,,,,,
net-scp,1.2.1,,,OpenSource,No,RubyGems,,Programming,,,,,
net-ssh,2.6.5,,,OpenSource,No,RubyGems,,Programming,,,,,
net-ssh,2.9.2,,,OpenSource,No,RubyGems,,Programming,,,,,
nokogiri,1.6.7.2,,,OpenSource,No,RubyGems,,Programming,,,,,
mini_portile2,2.0.0,,,OpenSource,No,RubyGems,,Programming,,,,,
orm_adapter,0.5.0,,,OpenSource,No,RubyGems,,Programming,,,,,
parallel,1.6.1,,,OpenSource,No,RubyGems,,Programming,,,,,
parallel_tests,2.3.1,,,OpenSource,No,RubyGems,,Programming,,,,,
,,,,OpenSource,No,RubyGems,,Programming,,,,,
parser,2.2.2.6,,,OpenSource,No,RubyGems,,Programming,,,,,
ast,1.1,,,OpenSource,No,RubyGems,,Programming,,,,,
pg,0.18.2,,,OpenSource,No,RubyGems,,Programming,,,,,
phony,2.15.15,,,OpenSource,No,RubyGems,,Programming,,,,,
phony_rails,0.12.13,,,OpenSource,No,RubyGems,,Programming,,,,,
activesupport,3,,,OpenSource,No,RubyGems,,Programming,,,,,
phony,2.12,,,OpenSource,No,RubyGems,,Programming,,,,,
powerpack,0.1.1,,,OpenSource,No,RubyGems,,Programming,,,,,
private_pub,1.0.3,,,OpenSource,No,RubyGems,,Programming,,,,,
,,,,OpenSource,No,RubyGems,,Programming,,,,,
rack,1.6.4,,,OpenSource,No,RubyGems,,Programming,,,,,
rack-cors,0.4.0,,,OpenSource,No,RubyGems,,Programming,,,,,
rack-protection,1.5.3,,,OpenSource,No,RubyGems,,Programming,,,,,
rack-test,0.6.3,,,OpenSource,No,RubyGems,,Programming,,,,,
rack,1,,,OpenSource,No,RubyGems,,Programming,,,,,
rails,4.2.5.2,,,OpenSource,No,RubyGems,,Programming,,,,,
actionmailer,4.2.5.2,,,OpenSource,No,RubyGems,,Programming,,,,,
actionpack,4.2.5.2,,,OpenSource,No,RubyGems,,Programming,,,,,
actionview,4.2.5.2,,,OpenSource,No,RubyGems,,Programming,,,,,
activejob,4.2.5.2,,,OpenSource,No,RubyGems,,Programming,,,,,
activemodel,4.2.5.2,,,OpenSource,No,RubyGems,,Programming,,,,,
activerecord,4.2.5.2,,,OpenSource,No,RubyGems,,Programming,,,,,
activesupport,4.2.5.2,,,OpenSource,No,RubyGems,,Programming,,,,,
bundler,2,,,OpenSource,No,RubyGems,,Programming,,,,,
railties,4.2.5.2,,,OpenSource,No,RubyGems,,Programming,,,,,
rails-api,0.4.0,,,OpenSource,No,RubyGems,,Programming,,,,,
actionpack,3.2.11,,,OpenSource,No,RubyGems,,Programming,,,,,
railties ,3.2.11,,,OpenSource,No,RubyGems,,Programming,,,,,
rails-deprecated_sanitizer,1.0.3,,,OpenSource,No,RubyGems,,Programming,,,,,
activesupport,4.2.0,,,OpenSource,No,RubyGems,,Programming,,,,,
rails-dom-testing,1.0.7,,,OpenSource,No,RubyGems,,Programming,,,,,
activesupport,4.2.0,,,OpenSource,No,RubyGems,,Programming,,,,,
nokogiri,1.6.0,,,OpenSource,No,RubyGems,,Programming,,,,,
rails-deprecated_sanitizer,1.0.1,,,OpenSource,No,RubyGems,,Programming,,,,,
rails-html-sanitizer,1.0.3,,,OpenSource,No,RubyGems,,Programming,,,,,
loofah,2.0.0,,,OpenSource,No,RubyGems,,Programming,,,,,
railties,4.2.5.2,,,OpenSource,No,RubyGems,,Programming,,,,,
actionpack,4.2.5.2,,,OpenSource,No,RubyGems,,Programming,,,,,
activesupport,4.2.5.2,,,OpenSource,No,RubyGems,,Programming,,,,,
rake,0.8.7,,,OpenSource,No,RubyGems,,Programming,,,,,
thor,2,,,OpenSource,No,RubyGems,,Programming,,,,,
rainbow,2.0.0,,,OpenSource,No,RubyGems,,Programming,,,,,
rake,11.1.2,,,OpenSource,No,RubyGems,,Programming,,,,,
redis,3.2.2,,,OpenSource,No,RubyGems,,Programming,,,,,
redis-namespace,1.5.2,,,OpenSource,No,RubyGems,,Programming,,,,,
redis,3.0.4,,,OpenSource,No,RubyGems,,Programming,,,,,
responders,2.1.2,,,OpenSource,No,RubyGems,,Programming,,,,,
railties,5.1,,,OpenSource,No,RubyGems,,Programming,,,,,
resque,1.26.0,,,OpenSource,No,RubyGems,,Programming,,,,,
mono_logger,1,,,OpenSource,No,RubyGems,,Programming,,,,,
multi_json,1,,,OpenSource,No,RubyGems,,Programming,,,,,
redis-namespace,1.3,,,OpenSource,No,RubyGems,,Programming,,,,,
sinatra,0.9.2,,,OpenSource,No,RubyGems,,Programming,,,,,
vegas,0.1.2,,,OpenSource,No,RubyGems,,Programming,,,,,
resque-scheduler,4.1.0,,,OpenSource,No,RubyGems,,Programming,,,,,
mono_logger,1,,,OpenSource,No,RubyGems,,Programming,,,,,
redis,3,,,OpenSource,No,RubyGems,,Programming,,,,,
resque,1.25,,,OpenSource,No,RubyGems,,Programming,,,,,
rufus-scheduler,3,,,OpenSource,No,RubyGems,,Programming,,,,,
rgl,0.5.1,,,OpenSource,No,RubyGems,,Programming,,,,,
algorithms,0.6.1,,,OpenSource,No,RubyGems,,Programming,,,,,
stream,0.5.0,,,OpenSource,No,RubyGems,,Programming,,,,,
rmagick,2.15.4,,,OpenSource,No,RubyGems,,Programming,,,,,
rspec-core,3.4.1,,,OpenSource,No,RubyGems,,Programming,,,,,
rspec-support,3.4,,,OpenSource,No,RubyGems,,Programming,,,,,
rspec-expectations,3.4,,,OpenSource,No,RubyGems,,Programming,,,,,
diff-lcs,2,,,OpenSource,No,RubyGems,,Programming,,,,,
rspec-support,3.4.0,,,OpenSource,No,RubyGems,,Programming,,,,,
rspec-mocks,3.4.0,,,OpenSource,No,RubyGems,,Programming,,,,,
diff-lcs,2,,,OpenSource,No,RubyGems,,Programming,,,,,
rspec-support,3.4.0,,,OpenSource,No,RubyGems,,Programming,,,,,
rspec-rails,3.4.0,,,OpenSource,No,RubyGems,,Programming,,,,,
actionpack,4.3,,,OpenSource,No,RubyGems,,Programming,,,,,
activesupport,4.3,,,OpenSource,No,RubyGems,,Programming,,,,,
railties,4.3,,,OpenSource,No,RubyGems,,Programming,,,,,
rspec-core,3.4.0,,,OpenSource,No,RubyGems,,Programming,,,,,
rspec-expectations,3.4.0,,,OpenSource,No,RubyGems,,Programming,,,,,
rspec-mocks,3.4.0,,,OpenSource,No,RubyGems,,Programming,,,,,
rspec-support,3.4.0,,,OpenSource,No,RubyGems,,Programming,,,,,
rspec-support,3.4.1,,,OpenSource,No,RubyGems,,Programming,,,,,
rubocop,0.33.0,,,OpenSource,No,RubyGems,,Programming,,,,,
astrolabe,1.3,,,OpenSource,No,RubyGems,,Programming,,,,,
parser,3,,,OpenSource,No,RubyGems,,Programming,,,,,
powerpack,0.1,,,OpenSource,No,RubyGems,,Programming,,,,,
rainbow,3,,,OpenSource,No,RubyGems,,Programming,,,,,
ruby-progressbar,1.4,,,OpenSource,No,RubyGems,,Programming,,,,,
ruby-growl,4.1,,,OpenSource,No,RubyGems,,Programming,,,,,
uuid,2.3.5,,,OpenSource,No,RubyGems,,Programming,,,,,
ruby-prof,0.15.9,,,OpenSource,No,RubyGems,,Programming,,,,,
ruby-progressbar,1.7.5,,,OpenSource,No,RubyGems,,Programming,,,,,
ruby2ruby,2.2.0,,,OpenSource,No,RubyGems,,Programming,,,,,
ruby_parser,3.1,,,OpenSource,No,RubyGems,,Programming,,,,,
sexp_processor,4,,,OpenSource,No,RubyGems,,Programming,,,,,
ruby_parser,3.7.1,,,OpenSource,No,RubyGems,,Programming,,,,,
sexp_processor,4.1.0,,,OpenSource,No,RubyGems,,Programming,,,,,
rufus-scheduler,3.2.0,,,OpenSource,No,RubyGems,,Programming,,,,,
sass,3.4.16,,,OpenSource,No,RubyGems,,Programming,,,,,
sexp_processor,4.6.0,,,OpenSource,No,RubyGems,,Programming,,,,,
shoulda-matchers,2.8.0,,,OpenSource,No,RubyGems,,Programming,,,,,
activesupport,3.0.0,,,OpenSource,No,RubyGems,,Programming,,,,,
simplecov,0.10.0,,,OpenSource,No,RubyGems,,Programming,,,,,
docile,1.1.0,,,OpenSource,No,RubyGems,,Programming,,,,,
json,1.8.0,,,OpenSource,No,RubyGems,,Programming,,,,,
simplecov-html,0.10.0,,,OpenSource,No,RubyGems,,Programming,,,,,
simplecov-html,0.10.0,,,OpenSource,No,RubyGems,,Programming,,,,,
sinatra,1.4.7,,,OpenSource,No,RubyGems,,Programming,,,,,
rack,1.5,,,OpenSource,No,RubyGems,,Programming,,,,,
rack-protection,1.4,,,OpenSource,No,RubyGems,,Programming,,,,,
tilt,3,,,OpenSource,No,RubyGems,,Programming,,,,,
slim,3.0.6,,,OpenSource,No,RubyGems,,Programming,,,,,
temple,0.7.3,,,OpenSource,No,RubyGems,,Programming,,,,,
tilt,2.1,,,OpenSource,No,RubyGems,,Programming,,,,,
spring,1.3.6,,,OpenSource,No,RubyGems,,Programming,,,,,
sprockets,3.6.0,,,OpenSource,No,RubyGems,,Programming,,,,,
concurrent-ruby,1,,,OpenSource,No,RubyGems,,Programming,,,,,
rack,3,,,OpenSource,No,RubyGems,,Programming,,,,,
sprockets-rails,3.0.4,,,OpenSource,No,RubyGems,,Programming,,,,,
actionpack,4.0.0,,,OpenSource,No,RubyGems,,Programming,,,,,
activesupport,4.0.0,,,OpenSource,No,RubyGems,,Programming,,,,,
sprockets,3.0.0,,,OpenSource,No,RubyGems,,Programming,,,,,
sshkit,1.7.1,,,OpenSource,No,RubyGems,,Programming,,,,,
colorize,0.7.0,,,OpenSource,No,RubyGems,,Programming,,,,,
net-scp,1.1.2,,,OpenSource,No,RubyGems,,Programming,,,,,
net-ssh,2.8.0,,,OpenSource,No,RubyGems,,Programming,,,,,
stream,0.5,,,OpenSource,No,RubyGems,,Programming,,,,,
systemu,2.6.5,,,OpenSource,No,RubyGems,,Programming,,,,,
temple,0.7.6,,,OpenSource,No,RubyGems,,Programming,,,,,
terminal-table,1.5.2,,,OpenSource,No,RubyGems,,Programming,,,,,
thin,1.6.4,,,OpenSource,No,RubyGems,,Programming,,,,,
daemons,1.0.9,,,OpenSource,No,RubyGems,,Programming,,,,,
eventmachine,1.0.4,,,OpenSource,No,RubyGems,,Programming,,,,,
rack,1.0.0,,,OpenSource,No,RubyGems,,Programming,,,,,
thor,0.19.1,,,OpenSource,No,RubyGems,,Programming,,,,,
thread_safe,0.3.5,,,OpenSource,No,RubyGems,,Programming,,,,,
tilt,2.0.1,,,OpenSource,No,RubyGems,,Programming,,,,,
timecop,0.8.0,,,OpenSource,No,RubyGems,,Programming,,,,,
timeliness,0.3.8,,,OpenSource,No,RubyGems,,Programming,,,,,
twilio-ruby,4.10.0,,,OpenSource,No,RubyGems,,Programming,,,,,
builder,2.1.2,,,OpenSource,No,RubyGems,,Programming,,,,,
jwt,1.0.0,,,OpenSource,No,RubyGems,,Programming,,,,,
multi_json,1.3.0,,,OpenSource,No,RubyGems,,Programming,,,,,
tzinfo,1.2.2,,,OpenSource,No,RubyGems,,Programming,,,,,
thread_safe,0.1,,,OpenSource,No,RubyGems,,Programming,,,,,
uniform_notifier,1.9.0,,,OpenSource,No,RubyGems,,Programming,,,,,
uuid,2.3.8,,,OpenSource,No,RubyGems,,Programming,,,,,
macaddr,1.0.0,,,OpenSource,No,RubyGems,,Programming,,,,,
validates_timeliness,4.0.2,,,OpenSource,No,RubyGems,,Programming,,,,,
timeliness,0.3.7,,,OpenSource,No,RubyGems,,Programming,,,,,
vegas,0.1.11,,,OpenSource,No,RubyGems,,Programming,,,,,
rack,1.0.0,,,OpenSource,No,RubyGems,,Programming,,,,,
warden,1.2.6,,,OpenSource,No,RubyGems,,Programming,,,,,
rack,1.0.0,,,OpenSource,No,RubyGems,,Programming,,,,,
websocket-driver,0.6.3,,,OpenSource,No,RubyGems,,Programming,,,,,
websocket-extensions,0.1.0,,,OpenSource,No,RubyGems,,Programming,,,,,
websocket-extensions,0.1.2,,,OpenSource,No,RubyGems,,Programming,,,,,
wicked_pdf,1.0.4,,,OpenSource,No,RubyGems,,Programming,,,,,
wkhtmltopdf-binary-edge,0.12.3.0,,,OpenSource,No,RubyGems,,Programming,,,,,